\relax 
\providecommand\hyper@newdestlabel[2]{}
\providecommand\HyperFirstAtBeginDocument{\AtBeginDocument}
\HyperFirstAtBeginDocument{\ifx\hyper@anchor\@undefined
\global\let\oldcontentsline\contentsline
\gdef\contentsline#1#2#3#4{\oldcontentsline{#1}{#2}{#3}}
\global\let\oldnewlabel\newlabel
\gdef\newlabel#1#2{\newlabelxx{#1}#2}
\gdef\newlabelxx#1#2#3#4#5#6{\oldnewlabel{#1}{{#2}{#3}}}
\AtEndDocument{\ifx\hyper@anchor\@undefined
\let\contentsline\oldcontentsline
\let\newlabel\oldnewlabel
\fi}
\fi}
\global\let\hyper@last\relax 
\gdef\HyperFirstAtBeginDocument#1{#1}
\providecommand\HyField@AuxAddToFields[1]{}
\providecommand\HyField@AuxAddToCoFields[2]{}
\@writefile{toc}{\contentsline {chapter}{Preface}{v}{chapter*.6}}
\@writefile{toc}{\contentsline {chapter}{Abstract}{vii}{chapter*.7}}
\newlabel{sec:symbols}{{}{ix}{Symbols}{chapter*.8}{}}
\newlabel{sec:symbols@cref}{{}{ix}}
\@writefile{toc}{\contentsline {chapter}{Symbols}{ix}{chapter*.8}}
\@writefile{toc}{\contentsline {chapter}{\numberline {1}Introduction}{1}{chapter.1}}
\@writefile{lof}{\addvspace {10\p@ }}
\@writefile{lot}{\addvspace {10\p@ }}
\newlabel{sec:introduction}{{1}{1}{Introduction}{chapter.1}{}}
\newlabel{sec:introduction@cref}{{[chapter][1][]1}{1}}
\citation{calli}
\@writefile{toc}{\contentsline {chapter}{\numberline {2}Review of Literature}{3}{chapter.2}}
\@writefile{lof}{\addvspace {10\p@ }}
\@writefile{lot}{\addvspace {10\p@ }}
\newlabel{sec:review_of_literature}{{2}{3}{Review of Literature}{chapter.2}{}}
\newlabel{sec:review_of_literature@cref}{{[chapter][2][]2}{3}}
\citation{Kuhl1982}
\@writefile{toc}{\contentsline {chapter}{\numberline {3}Methodology}{5}{chapter.3}}
\@writefile{lof}{\addvspace {10\p@ }}
\@writefile{lot}{\addvspace {10\p@ }}
\newlabel{sec:methodology}{{3}{5}{Methodology}{chapter.3}{}}
\newlabel{sec:methodology@cref}{{[chapter][3][]3}{5}}
\@writefile{toc}{\contentsline {subsection}{\numberline {3.0.1}Elliptic Fourier Descriptors}{5}{subsection.3.0.1}}
\@writefile{toc}{\contentsline {chapter}{\numberline {4}Experiments and Results}{7}{chapter.4}}
\@writefile{lof}{\addvspace {10\p@ }}
\@writefile{lot}{\addvspace {10\p@ }}
\newlabel{experiments_results}{{4}{7}{Experiments and Results}{chapter.4}{}}
\newlabel{experiments_results@cref}{{[chapter][4][]4}{7}}
\@writefile{toc}{\contentsline {section}{\numberline {4.1}Simulation}{7}{section.4.1}}
\newlabel{sec:object_recognition}{{4.1}{7}{Simulation}{section.4.1}{}}
\newlabel{sec:object_recognition@cref}{{[section][1][4]4.1}{7}}
\@writefile{toc}{\contentsline {section}{\numberline {4.2}Real Robot}{7}{section.4.2}}
\newlabel{sec:object_recognition}{{4.2}{7}{Real Robot}{section.4.2}{}}
\newlabel{sec:object_recognition@cref}{{[section][2][4]4.2}{7}}
\@writefile{toc}{\contentsline {chapter}{\numberline {5}Discussion and Future Work}{9}{chapter.5}}
\@writefile{lof}{\addvspace {10\p@ }}
\@writefile{lot}{\addvspace {10\p@ }}
\newlabel{discussion_future_work}{{5}{9}{Discussion and Future Work}{chapter.5}{}}
\newlabel{discussion_future_work@cref}{{[chapter][5][]5}{9}}
\@writefile{toc}{\contentsline {chapter}{\numberline {6}Conclusion}{11}{chapter.6}}
\@writefile{lof}{\addvspace {10\p@ }}
\@writefile{lot}{\addvspace {10\p@ }}
\newlabel{conclusion}{{6}{11}{Conclusion}{chapter.6}{}}
\newlabel{conclusion@cref}{{[chapter][6][]6}{11}}
\bibstyle{bibliography/IEEEtranN}
\bibdata{bibliography/references}
\bibcite{Kuhl1982}{{1}{1982}{{Kuhl and Giardina}}{{}}}
\@writefile{toc}{\contentsline {chapter}{Bibliography}{13}{chapter*.12}}
\@writefile{toc}{\contentsline {chapter}{\numberline {A}Irgendwas}{15}{appendix.A}}
\@writefile{lof}{\addvspace {10\p@ }}
\@writefile{lot}{\addvspace {10\p@ }}
\newlabel{sec:irgendwas}{{A}{15}{Irgendwas}{appendix.A}{}}
\newlabel{sec:irgendwas@cref}{{[appendix][1][2147483647]A}{15}}
\@writefile{toc}{\contentsline {chapter}{\numberline {B}Datasheets}{17}{appendix.B}}
\@writefile{lof}{\addvspace {10\p@ }}
\@writefile{lot}{\addvspace {10\p@ }}
\newlabel{sec:datasheets}{{B}{17}{Datasheets}{appendix.B}{}}
\newlabel{sec:datasheets@cref}{{[appendix][2][2147483647]B}{17}}
